<svg version="1.1" baseProfile="tiny" xmlns="http://www.w3.org/2000/svg" xmlns:xlink="http://www.w3.org/1999/xlink" x="0px" y="0px" viewBox="0 0 259 70" xml:space="preserve" fill="#00529B">
  <path d="M101.986,28.927h-1.253c-0.278-4.548-2.042-5.755-6.404-5.755c-1.717,0-4.502-0.232-4.502,1.253v21.997 c0,3.434,0.65,4.734,5.151,4.919v1.068c-2.552-0.047-5.151-0.139-7.704-0.186c-2.459,0.047-4.873,0.139-7.379,0.186v-1.068 c4.502-0.186,5.151-1.485,5.151-4.919V24.425c0-1.392-2.042-1.253-3.898-1.253c-4.594,0-6.822,0.232-7.007,5.755h-1.067v-7.24 h28.494L101.986,28.927z"></path>
  <path d="M135.725,40.111c0,8.446-3.295,12.808-12.112,12.808c-8.307,0-12.344-2.924-12.344-11.323V30.505 c0-1.485,0-4.919-0.464-6.172c-0.603-1.578-2.506-1.578-3.991-1.578v-1.067c2.181,0.046,4.409,0.139,6.59,0.186 c2.367-0.046,4.687-0.139,7.054-0.186v1.067c-1.485,0-3.434-0.046-3.991,1.578c-0.417,1.253-0.417,4.687-0.417,6.172v11.416 c0,5.94,2.32,9.328,8.678,9.328c6.404,0,9.607-3.341,9.607-9.56V31.526c0-1.624,0-5.198-0.464-6.636 c-0.65-1.949-2.506-2.135-4.316-2.135v-1.067c1.81,0.046,3.573,0.139,5.383,0.186c1.717-0.046,3.434-0.139,5.197-0.186v1.067 c-1.485,0.046-3.109,0-3.759,1.671c-0.65,1.671-0.65,5.244-0.65,7.1V40.111z"></path>
  <path d="M148.303,30.598c0-1.485,0-4.919-0.417-6.172c-0.511-1.624-2.46-1.578-3.945-1.578v-1.16 c1.903,0.046,3.899,0.139,5.848,0.186c2.506-0.046,5.012-0.139,7.518-0.186c9.792-0.186,17.217,5.94,17.217,16.011 c0,9.838-6.45,14.943-16.011,14.711c-2.738-0.047-5.522-0.139-8.26-0.186c-2.135,0.047-4.223,0.139-6.312,0.186v-1.068 c1.485,0,3.434,0,3.945-1.578c0.417-1.253,0.417-4.687,0.417-6.172V30.598z M153.083,44.241c0,1.578-0.185,3.805,0.743,5.151 c1.067,1.578,3.434,1.764,5.197,1.764c8.121,0,9.699-5.847,9.699-12.716c0-9.189-2.645-15.5-12.577-15.5 c-0.556,0-2.366-0.093-2.784,0.325c-0.278,0.278-0.278,1.068-0.278,1.439V44.241z"></path>
  <path d="M179.164,37.141c0-9.235,8.075-16.011,17.032-16.011c8.864,0,16.66,6.497,16.66,15.686 c0,9.514-7.472,16.103-16.846,16.103C186.961,52.92,179.164,46.469,179.164,37.141z M184.965,37.141 c0,7.286,2.877,14.526,11.323,14.526c8.261,0,10.766-7.75,10.766-14.665c0-6.961-2.877-14.619-11.045-14.619 C187.982,22.383,184.965,30.273,184.965,37.141z"></path>
  <path d="M242.28,48.604c1.485,1.717,2.181,2.367,4.548,2.738v1.068c-1.392-0.047-2.784-0.139-4.177-0.186 c-1.16,0.047-2.32,0.139-3.481,0.186l-2.181-2.692l-7.704-9.56c-1.531-1.764-1.346-2.042-3.806-2.042v5.476 c0,1.485,0,4.919,0.418,6.172c0.556,1.624,2.459,1.578,3.945,1.578v1.068c-2.135-0.047-4.316-0.139-6.543-0.186 c-2.32,0.047-4.641,0.139-6.961,0.186v-1.068c1.485,0,3.434,0,3.945-1.578c0.417-1.253,0.417-4.687,0.417-6.172V30.505 c0-1.485,0-4.919-0.417-6.172c-0.511-1.624-2.46-1.578-3.945-1.578v-1.067c2.645,0.046,5.337,0.139,7.982,0.186 c1.949-0.046,3.945-0.139,5.894-0.186c5.291,0,10.627,1.207,10.627,7.657c0,5.012-3.806,7.564-8.4,7.982L242.28,48.604z  M225.48,36.863c5.801,0,10.024-0.139,10.024-6.868c0-4.084-2.32-6.961-6.497-6.961c-0.557,0-2.599-0.139-3.016,0.046 c-0.603,0.278-0.511,1.16-0.511,1.671V36.863z"></path>
  <path d="M33.39,12.278c-13.702,0-24.85,11.148-24.85,24.85c0,13.703,11.148,24.851,24.85,24.851 c13.703,0,24.85-11.148,24.85-24.851C58.241,23.426,47.093,12.278,33.39,12.278z M48.779,33.75h-0.89 c-1.148-5.052-4.881-9.128-9.729-10.779v28.137c4.853-1.652,8.589-5.735,9.732-10.794h0.887v12.126H38.16v0.003h-9.781v-0.003 H18.024V40.313h0.83c1.127,4.988,4.772,9.033,9.525,10.729V23.036c-4.749,1.695-8.39,5.733-9.522,10.714h-0.833V21.684h30.755V33.75 z"></path>
  <path d="M59.645,12.191c0.767,0,1.513,0.15,2.237,0.45c0.725,0.3,1.36,0.722,1.904,1.267 c0.539,0.539,0.955,1.172,1.25,1.9c0.295,0.728,0.442,1.483,0.442,2.267c0,0.761-0.154,1.504-0.463,2.229 c-0.308,0.725-0.746,1.371-1.312,1.938c-0.55,0.55-1.174,0.967-1.871,1.25c-0.697,0.283-1.448,0.425-2.254,0.425 c-0.761,0-1.492-0.146-2.192-0.438c-0.7-0.292-1.33-0.715-1.892-1.271c-0.561-0.555-0.989-1.186-1.283-1.892 c-0.295-0.705-0.442-1.458-0.442-2.258c0-0.778,0.147-1.524,0.442-2.237c0.295-0.714,0.717-1.351,1.267-1.913 c0.545-0.55,1.178-0.973,1.9-1.271C58.1,12.34,58.856,12.191,59.645,12.191z M59.645,12.875c-0.678,0-1.333,0.133-1.967,0.399 c-0.633,0.266-1.195,0.646-1.683,1.139c-0.489,0.493-0.863,1.054-1.121,1.684c-0.259,0.629-0.388,1.287-0.388,1.974 c0,0.704,0.129,1.366,0.388,1.987c0.258,0.621,0.637,1.178,1.137,1.671c0.489,0.493,1.04,0.867,1.654,1.122 c0.614,0.255,1.268,0.382,1.963,0.382c0.7,0,1.357-0.127,1.971-0.382c0.614-0.255,1.163-0.629,1.646-1.122 c0.489-0.499,0.864-1.061,1.125-1.687c0.261-0.626,0.392-1.283,0.392-1.97s-0.132-1.356-0.396-2.008 c-0.264-0.651-0.632-1.207-1.104-1.667c-0.478-0.482-1.035-0.856-1.671-1.122C60.955,13.008,60.306,12.875,59.645,12.875z  M56.52,14.608h3.275c0.817,0,1.463,0.151,1.937,0.454c0.476,0.303,0.713,0.71,0.713,1.221c0,0.422-0.193,0.767-0.579,1.033 c-0.386,0.267-0.99,0.475-1.812,0.625c0.517,0.161,0.911,0.376,1.183,0.646c0.272,0.27,0.47,0.64,0.592,1.112 c0.033,0.122,0.064,0.297,0.092,0.525c0.072,0.489,0.236,0.733,0.492,0.733c0.178,0,0.315-0.094,0.413-0.283 c0.097-0.189,0.146-0.464,0.146-0.825h0.358v0.1c0,0.489-0.113,0.86-0.337,1.113c-0.225,0.253-0.557,0.379-0.996,0.379 c-0.255,0-0.473-0.047-0.654-0.142c-0.181-0.094-0.316-0.23-0.404-0.408c-0.1-0.222-0.158-0.537-0.175-0.946 c-0.017-0.408-0.042-0.674-0.075-0.796c-0.111-0.378-0.307-0.657-0.588-0.838c-0.28-0.18-0.659-0.271-1.137-0.271h-0.275v2.067 c0,0.3,0.074,0.51,0.221,0.629c0.147,0.12,0.421,0.19,0.821,0.212v0.333H56.52V20.95c0.4-0.017,0.676-0.085,0.829-0.204 c0.153-0.119,0.229-0.332,0.229-0.637v-4.3c0-0.305-0.072-0.517-0.217-0.633c-0.145-0.117-0.425-0.186-0.842-0.208V14.608z  M58.687,17.716c0.089,0.006,0.178,0.01,0.267,0.012c0.089,0.003,0.183,0.004,0.283,0.004c0.622,0,1.104-0.126,1.446-0.379 c0.342-0.253,0.513-0.61,0.513-1.071c0-0.405-0.147-0.732-0.442-0.979c-0.295-0.247-0.692-0.371-1.192-0.371 c-0.289,0-0.507,0.051-0.654,0.154c-0.148,0.103-0.221,0.251-0.221,0.446V17.716z"></path>
</svg>
